0
0
0
0
0
0
0
0
0
0
0
0
0
0
0
0
0
0
0
0
0
0
0
0
0
0
0
0
0
0
0
0
0
0
0
0
0
0
0
0
0
0
0
0
0
0
0
0
0
0
0
0
0
0
0
0
0
0
0
0
0
0
0
0
0
0
0
0
0
0
0
0
0
0
0
0
0
0
0
0
0
0
0
0
0
0
0
0
0
0
0
0
0
0
0
0
0
0
0
0
4
18
48
100
180
294
448
648
900
1210
1584
2028
2548
3150
3840
4624
5508
6498
7600
8820
10164
11638
13248
15000
16900
18954
21168
23548
26100
28830
31744
34848
38148
41650
45360
49284
53428
57798
62400
67240
72324
77658
83248
89100
95220
101614
108288
115248
122500
130050
137904
146068
154548
163350
172480
181944
191748
201898
212400
223260
234484
246078
258048
270400
283140
296274
309808
323748
338100
352870
368064
383688
399748
416250
433200
450604
468468
486798
505600
524880
544644
564898
585648
606900
628660
650934
673728
697048
720900
745290
770224
795708
821748
848350
875520
903264
931588
960498
990000
76
200
412
738
1200
1824
2632
3650
4900
6408
8196
10290
12712
15488
18640
22194
26172
30600
35500
40898
46816
53280
60312
67938
76180
85064
94612
104850
115800
127488
139936
153170
167212
182088
197820
214434
231952
250400
269800
290178
311556
333960
357412
381938
407560
434304
462192
491250
521500
552968
585676
619650
654912
691488
729400
768674
809332
851400
894900
939858
986296
1034240
1083712
1134738
1187340
1241544
1297372
1354850
1414000
1474848
1537416
1601730
1667812
1735688
1805380
1876914
1950312
2025600
2102800
2181938
2263036
2346120
2431212
2518338
2607520
2698784
2792152
2887650
2985300
3085128
3187156
3291410
3397912
3506688
3617760
3731154
3846892
3965000
516
1056
1884
3052
4628
6668
9232
12380
16176
20672
25936
32024
38996
46912
55836
65820
76932
89228
102768
117612
133824
151456
170576
191240
213508
237440
263100
290540
319828
351020
384176
419356
456624
496032
537648
581528
627732
676320
727356
780892
836996
895724
957136
1021292
1088256
1158080
1230832
1306568
1385348
1467232
1552284
1640556
1732116
1827020
1925328
2027100
2132400
2241280
2353808
2470040
2590036
2713856
2841564
2973212
3108868
3248588
3392432
3540460
3692736
3849312
4010256
4175624
4345476
4519872
4698876
4882540
5070932
5264108
5462128
5665052
5872944
6085856
6303856
6527000
6755348
6988960
7227900
7472220
7721988
7977260
8238096
8504556
8776704
9054592
9338288
9627848
9923332
2148
3820
6176
9352
13456
18612
24940
32568
41596
52164
64384
78376
94256
112156
132180
154464
179116
206260
236016
268512
303848
342164
383572
428192
476140
527548
582520
641192
703672
770084
840548
915192
994116
1077460
1165336
1257864
1355160
1457356
1564556
1676896
1794484
1917444
2045896
2179968
2319760
2465412
2617036
2774752
2938676
3108940
3285648
3468936
3658912
3855700
4059420
4270200
4488140
4713380
4946032
5186216
5434048
5689660
5953156
6224672
6504316
6792212
7088480
7393248
7706616
8028724
8359684
8699616
9048636
9406876
9774440
10151464
10538056
10934340
11340436
11756472
12182548
12618804
13065352
13522312
13989800
14467948
14956860
15456672
15967492
16489444
17022648
17567232
18123296
18690980
19270396
19861664
6768
10922
16516
23740
32812
43934
57336
73196
91756
113214
137772
165640
197048
232182
271276
314512
362116
414298
471280
533240
600412
673002
751220
835268
925376
1021722
1124548
1234044
1350428
1473910
1604704
1742996
1889028
2042998
2205116
2375576
2554616
2742422
2939228
3145224
3360620
3585634
3820488
4065360
4320492
4586074
4862324
5149444
5447664
5757170
6078188
6410916
6755572
7112366
7481520
7863204
8257668
8665110
9085740
9519760
9967392
10428830
10904308
11394016
11898172
12416978
12950664
13499408
14063452
14642994
15238236
15849388
16476680
17120298
17780476
18457396
19151284
19862350
20590816
21336860
22100716
22882590
23682692
24501224
25338416
26194446
27069556
27963936
28877804
29811370
30764848
31738424
32732340
33746794
34781996
17600
26588
38192
52758
70608
92112
117552
147318
181728
221100
265776
316122
372432
435084
504368
580646
664256
755552
854816
962422
1078704
1203996
1338624
1482954
1637264
1801948
1977312
2163702
2361456
2570912
2792368
3026214
3272768
3532364
3805312
4091994
4392704
4707820
5037648
5382518
5742784
6118800
6510848
6919318
7344512
7786780
8246448
8723882
9219376
9733292
10265952
10817702
11388880
11979840
12590848
13222310
13874544
14547884
15242656
15959210
16697856
17458972
18242864
19049878
19880336
20734608
21612976
22515830
23443488
24396268
25374512
26378586
27408784
28465484
29548976
30659622
31797760
32963744
34157856
35380470
36631920
37912540
39222656
40562634
41932752
43333404
44764896
46227574
47721776
49247840
50806064
52396838
54020480
55677324
40120
57588
79508
106364
138708
176968
221724
273444
332616
399756
475408
560016
654144
758232
872808
998392
1135512
1284596
1446200
1620828
1808980
2011136
2227852
2459548
2706812
2970108
3249952
3546852
3861300
4193760
4544812
4914936
5304632
5714368
6144712
6596096
7069096
7564176
8081828
8622584
9186972
9775420
10388496
11026668
11690460
12380364
13096924
13840584
14611884
15411300
16239360
17096572
17983464
18900440
19848104
20826936
21837424
22880072
23955400
25063876
26206064
27382428
28593484
29839704
31121652
32439756
33794596
35186652
36616400
38084356
39591052
41136944
42722596
44348448
46015040
47722880
49472496
51264304
53098872
54976704
56898300
58864152
60874804
62930676
65032344
67180284
69375012
71617036
73906860
76244936
78631844
81068052
83554072
82608
114000
152456
198760
253528
317584
391592
476260
572312
680532
801560
936196
1085072
1248936
1428536
1624624
1837808
2068888
2318584
2587612
2876648
3186492
3517752
3871260
4247672
4647736
5072176
5521688
5996944
6498768
7027848
7584900
8170584
8785716
9430912
10106996
10814632
11554528
12327440
13134120
13975176
14851416
15763520
16712236
17698264
18722380
19785224
20887564
22030064
23213496
24438584
25706080
27016568
28370904
29769776
31213876
32703920
34240660
35824768
37457044
39138152
40868832
42649752
44481720
46365344
48301456
50290744
52333892
54431632
56584716
58793808
61059708
63383040
65764584
68205064
70705232
73265680
75887224
78570584
81316476
84125592
86998716
89936456
92939620
96008896
99145024
102348728
105620728
108961664
112372368
115853504
119405812
157252
210234
274016
349452
437668
539578
656160
788404
937388
1103986
1289304
1494220
1719752
1966934
2236796
2530176
2848176
3191786
3561976
3959688
4386020
4841818
5328216
5846116
6396548
6980510
7598956
8252804
8943192
9671070
10437420
11243152
12089384
12976966
13907028
14880488
15898308
16961538
18071208
19228156
20433488
21688150
22993164
24349496
25758208
27220174
28736460
30307972
31935776
33620870
35364284
37166832
39029680
40953778
42940060
44989524
47103208
49282038
51527108
53839336
56219736
58669230
61188924
63779644
66442544
69178574
71988676
74873856
77835140
80873450
83989880
87185292
90460744
93817246
97255828
100777308
104382808
108073318
111849820
115713264
119664728
123705046
127835328
132056528
136369660
140775722
145275704
149870484
154561204
159348778
164234212
280988
366152
466876
584650
720696
876316
1052832
1251678
1474020
1721332
1994780
2295730
2625560
2985640
3377096
3801386
4259836
4753732
5284340
5853118
6461192
7110076
7800976
8535266
9314276
10139272
11011484
11932426
12903368
13925620
15000384
16129158
17313084
18553660
19852116
21209722
22627888
24107984
25651136
27258810
28932260
30672860
32481900
34360790
36310696
38333036
40429024
42600082
44847540
47172768
49576852
52061346
54627520
57276612
60009960
62828942
65734804
68728996
71812748
74987410
78254200
81614600
85069712
88621074
92269956
96017612
99865388
103814646
107866624
112022772
116284232
120652418
125128684
129714400
134410668
139218970
144140632
149176964
154329232
159598870
164986980
170495052
176124364
181876266
187752088
193753144
199880616
206136018
212520572
219035612
477012
608128
761420
938484
1141012
1370724
1629476
1918792
2240580
2596360
2987912
3417004
3885432
4394676
4946616
5542980
6185436
6875640
7615476
8406416
9250420
10149064
11104112
12117312
13190308
14324708
15522468
16785244
18114740
19512516
20980516
22520240
24133620
25822244
27587776
29432052
31356848
33363644
35454332
37630540
39894060
42246572
44689900
47225568
49855392
52580980
55404176
58326708
61350352
64476532
67707256
71044180
74488912
78043196
81708816
85487384
89380792
93390648
97518704
101766540
106136080
110628768
115246592
119991208
124864248
129867464
135002600
140271296
145675424
151216472
156896276
162716600
168679220
174785588
181037612
187437020
193985516
200684728
207536532
214542364
221704160
229023588
236502400
244142324
251945064
259912172
268045600
276346944
284817912
775172
970452
1196008
1453992
1746592
2076164
2444652
2854480
3307588
3806244
4352680
4949192
5597664
6300492
7059876
7877936
8756788
9698820
10705912
11780552
12924752
14140740
15430756
16796896
18241196
19766148
21373864
23066512
24846080
26715036
28675300
30729320
32879108
35126796
37474720
39925136
42479928
45141508
47911948
50793528
53788388
56898844
60126840
63474672
66944408
70538388
74258812
78107936
82087572
86200276
90448160
94833272
99357832
104024108
108834140
113790344
118894772
124149652
129557000
135119256
140838256
146716532
152756196
158959328
165328156
171864884
178571616
185450728
192504120
199734124
207142988
214732968
222505916
230464260
238610200
246945904
255473432
264195180
273112980
282229296
291546252
301066076
310790968
320723096
330864432
341217460
351784220
362566864
1214768
1496954
1819700
2185740
2598008
3058946
3571572
4138324
4762036
5445482
6191536
7002564
7881556
8831238
9854284
10953348
12131400
13390806
14734660
16165488
17686060
19299186
21007492
22813520
24720376
26730706
28847196
31072364
33409280
35860362
38428652
41116664
43927076
46862802
49926656
53121004
56448856
59912806
63515700
67260192
71149192
75185142
79370896
83709060
88202548
92854110
97666560
102642176
107784140
113095098
118577616
124234468
130068460
136082162
142278592
148660324
155230140
161990570
168944648
176094680
183443820
190994714
198749968
206712364
214884644
223269430
231869704
240687856
249726792
258989322
268478260
278195936
288145376
298329330
308750508
319411480
330315240
341464094
352861088
364508904
376410324
388568098
400984936
413663308
426606308
439816498
453296552
1844512
2242020
2692840
3200570
3768232
4399524
5097464
5865526
6707120
7625784
8624448
9706782
10876120
12135776
13489000
14939454
16490072
18144640
19906280
21778390
23764432
25867636
28091144
30438762
32913752
35519404
38258848
41135842
44153360
47315148
50624304
54084138
57698224
61470020
65402456
69499214
73763504
78198824
82808424
87595894
92564256
97717008
103057352
108588886
114314992
120239128
126364120
132693862
139231616
145980540
152944056
160125594
167528336
175155988
183011728
191098978
199420840
207981052
216782472
225828962
235123784
244670156
254471496
264531158
274852376
285438824
296293464
307419862
318821472
330501752
342463568
354710654
367246392
380074120
393197000
406618710
420342112
434370908
448708432
463358106
478323312
493607388
509213384
525145090
541405648
557998364
2725000
3272748
3889616
4579292
5346248
6194164
7127248
8149640
9265632
10478804
11793592
13214036
14744176
16387952
18149808
20033308
22043048
24182836
26456784
28869100
31423700
34124420
36975860
39981988
43146784
46474076
49968408
53633396
57473584
61492744
65694880
70084344
74665328
79441412
84417044
89596132
94982920
100581348
106395776
112429892
118687924
125173768
131891792
138846104
146040896
153479604
161166952
169106908
177303308
185760316
194482068
203472452
212735956
222276452
232098088
242204624
252600600
263289512
274276024
285564104
297157644
309060816
321277676
333812156
346668716
359850972
373363244
387209724
401394604
415921372
430794556
446018268
461596560
477533280
493832880
510498840
527535636
544947344
562738112
580912048
599473200
618425292
637772904
657519848
677670148
3930384
4670980
5498984
6419740
7437680
8557848
9785208
11124904
12581248
14159552
15864656
17701424
19674576
21789440
24050304
26462672
29031104
31760552
34656064
37722340
40964000
44386540
47994728
51793332
55786960
59981052
64379960
68989124
73813080
78856628
84124992
89623196
95355536
101327352
107543344
114008600
120727840
127706296
134948416
142459256
150243488
158306360
166652800
175287832
184215592
193441736
202971032
212808092
222957888
233425388
244215280
255332932
266783000
278570460
290699824
303176532
316004800
329190204
342737512
356651388
370936848
385598752
400641824
416071408
431891840
448108320
464725872
481749520
499183464
517033128
535303448
553999288
573125264
592686712
612687824
633133948
654029992
675380932
697191696
719467140
742211728
765430956
789129400
813311900
5550844
6534550
7628416
8837728
10168468
11626526
13218000
14948036
16822924
18848406
21030272
23374124
25886276
28571842
31437336
34488172
37730244
41169510
44811588
48661984
52727192
57012882
61524712
66268172
71249700
76474486
81948968
87678548
93668924
99926294
106456616
113265004
120357792
127740574
135419352
143399760
151688004
160289394
169209916
178455120
188031236
197944114
208199712
218802968
229760572
241078194
252761324
264815844
277247656
290062350
303266276
316864944
330864292
345269686
360087568
375322976
390982500
407071810
423596444
440562364
457975336
475840978
494165620
512954420
532213560
551948998
572166692
592871656
614070280
635768458
657971968
680686296
703917764
727671378
751953460
776769852
802126460
828029134
854483640
881495284
909070580
937214970
965934212
7692300
8979668
10402900
11969022
13684960
15557876
17593848
19800262
22183868
24751476
27509692
30465926
33626216
36998204
40588264
44403338
48450404
52736108
57266916
62050462
67093424
72402456
77984040
83845722
89993628
96435312
103177148
110225826
117588640
125272592
133283712
141629446
150316388
159351560
168741620
178493858
188614520
199110664
209988824
221256318
232920028
244986956
257462940
270355822
283672280
297418776
311602224
326229570
341307404
356843176
372843356
389314950
406264288
423698924
441624792
460049638
478980140
498422816
518384684
538872526
559892952
581453396
603559944
626219854
649440140
673227804
697588772
722530518
748060000
774184016
800909032
828242466
856190212
884759708
913957836
943791538
974267696
1005393096
1037173984
1069618010
1102731588
1136521488
10482124
12143140
13970900
15973480
18159220
20535244
23110148
25891804
28888156
32106928
35556740
39244668
43179596
47368972
51820900
56543492
61544536
66831572
72413488
78298048
84493052
91006088
97845924
105019736
112536308
120403100
128627908
137219236
146185244
155532992
165271152
175407432
185949988
196906616
208285804
220094848
232341992
245034868
258181960
271791332
285871144
300428248
315471752
331009456
347048908
363598168
380665340
398258128
416385196
435054088
454272992
474049316
494391840
515307508
536805336
558893124
581578484
604869568
628774324
653300468
678456652
704250004
730688972
757781740
785536468
813960108
843061332
872848276
903328872
934510680
966402328
999010712
1032344500
1066411728
1101220488
1136778808
1173094572
1210175116
1248029340
1286664744
1326089224
14066996
16183968
18503400
21034932
23786848
26769072
29990724
33461004
37188868
41184272
45455432
50012612
54864448
60020332
65489628
71281380
77404324
83868728
90683560
97857888
105400488
113321508
121629292
130333976
139444220
148969044
158918288
169301392
180126560
191403816
203142084
215350792
228038988
241216484
254891744
269074312
283773040
298997704
314757668
331062372
347919764
365340376
383333248
401907136
421071360
440835300
461207900
482199160
503817812
526073352
548974368
572531004
596751328
621645752
647223316
673492840
700463732
728145232
756546280
785676868
815545248
846161216
877534244
909673772
942587892
976286592
1010779312
1046075240
1082183144
1119112988
1156872772
1195472532
1234921572
1275229260
1316404888
1358457552
1401395800
1445229908
1489968580
1535620960
18619128
21287158
24199124
27364592
30794944
34500674
38492360
42780308
47375948
52288758
57530512
63111160
69041504
75332290
81993932
89036496
96471760
104310022
112561740
121237008
130347480
139902754
149914484
160392656
171347636
182790730
194732784
207183268
220153676
233654286
247695920
262289008
277444812
293173086
309484804
326390152
343900332
362026138
380778416
400166332
420201972
440895742
462257692
484298568
507029152
530459750
554601828
579465432
605061488
631399882
658492260
686347936
714978848
744395402
774607748
805626680
837462844
870126538
903629224
937980404
973191344
1009272934
1046236020
1084089920
1122846104
1162515442
1203108500
1244635384
1287107520
1330534134
1374926748
1420296072
1466652872
1514007834
1562371392
1611753428
1662165724
1713618302
1766121688
24337056
27665760
31284248
35205494
39441496
44004344
48905824
54158974
59774664
65766312
72145312
78923990
86114624
93729132
101779040
110277770
119237080
128668952
138584928
148998302
159920056
171363496
183340024
195861526
208940904
222590544
236821312
251646306
267077288
283126608
299806208
317128934
335105960
353749804
373072136
393085718
413802904
435236080
457395760
480295718
503947856
528363652
553555408
579535442
606315512
633908724
662326568
691581534
721684936
752650056
784487584
817211118
850832560
885363524
920816320
957203114
994535712
1032827180
1072088400
1112332242
1153571144
1195817492
1239081960
1283377634
1328716944
1375111968
1422574240
1471116822
1520750296
1571487804
1623341592
1676323958
1730447112
1785722960
1842162848
1899780198
1958586480
2018593716
31449200
35562016
40018912
44833528
50019604
55590544
61561132
67943768
74753652
82003760
89708080
97880560
106534760
115683804
125342896
135525392
146244936
157514656
169349624
181762344
194767912
208379284
222610004
237474664
252987372
269160528
286008972
303546088
321785892
340741976
360428908
380859420
402047712
424007076
446751972
470296452
494654580
519838356
545863380
572743188
600490824
629120284
658645560
689080000
720438488
752734096
785980972
820192040
855382356
891564124
928752740
966961740
1006204340
1046494504
1087846056
1130272448
1173788488
1218406576
1264141324
1311006856
1359017236
1408184632
1458523884
1510049120
1562774068
1616711828
1671877236
1728282368
1785942124
1844870380
1905081148
1966588300
2029405352
2093545252
2159023200
2225852252
2294046064
40212160
45251304
50694872
56558396
62857040
69607484
76823792
84523100
92720096
101430584
110670328
120454676
130798472
141718868
153230960
165350196
178091424
191471652
205505040
220208628
235597064
251685696
268490952
286028808
304313296
323361188
343187632
363808452
385239032
407495812
430593216
454547280
479373048
505086832
531704528
559242024
587712928
617134832
647523048
678892328
711258496
744637376
779044040
814495304
851005960
888591960
927267984
967051008
1007954848
1049996888
1093192440
1137556464
1183104720
1229852840
1277816056
1327011072
1377451936
1429155156
1482136688
1536412420
1591996136
1648904596
1707153768
1766759172
1827735608
1890099844
1953865584
2019049640
2085667656
2153735504
2223268864
2294283008
2366792584
2440814760
2516364320
2593456696
50921316
57046354
63643892
70731004
78326416
86445998
95108980
104331912
114132564
124528666
135537496
147175776
159462756
172415422
186051176
200386728
215441180
231230498
247773816
265087624
283189216
302097014
321829012
342401024
363831904
386138666
409339140
433450652
458491664
484478442
511429000
539360292
568290632
598237910
629219988
661252224
694354360
728543634
763836656
800251228
837805148
876515370
916400792
957478076
999765128
1043278526
1088037324
1134057100
1181357376
1229955390
1279867948
1331112804
1383707548
1437669342
1493016936
1549766168
1607935600
1667543170
1728606740
1791141860
1855167352
1920701182
1987760812
2056362892
2126526272
2198266426
2271602236
2346551264
2423131392
2501360258
2581255032
2662832220
2746111108
2831108358
2917841328
63907468
71297836
79236596
87744678
96839912
106543780
116874848
127853010
139498116
151829532
164866012
178629062
193137712
208411452
224469032
241331806
259017700
277548100
296941492
317217274
338396016
360497888
383540640
407545366
432531100
458517836
485524948
513573126
542680632
572867616
604153096
636557546
670101004
704803464
740682188
777759226
816053896
855584824
896371944
938435162
981793492
1026468072
1072477588
1119842058
1168580112
1218713040
1270258336
1323237818
1377670804
1433576104
1490973620
1549883058
1610323616
1672316296
1735878880
1801032142
1867796156
1936190916
2006233892
2077946126
2151347736
2226458284
2303296424
2381883246
2462236148
2544376216
2628323108
2714096874
2801717264
2891203504
2982574112
3075850650
3171051812
3268197040
79542108
88398124
97889180
108035224
118860156
130384720
142631092
155621408
169377284
183919652
199272452
215456920
232494792
250407024
269217384
288945916
309616424
331249552
353866948
377491508
402145740
427849488
454626252
482497248
511484792
541610472
572897368
605365848
639038412
673936304
710082316
747498800
786208044
826229372
867587308
910303412
954398472
999894732
1046814368
1095178612
1145011008
1196332428
1249165160
1303530052
1359450792
1416946936
1476042776
1536759872
1599119196
1663142964
1728853160
1796271176
1865420432
1936320816
2008995424
2083466680
2159756872
2237885548
2317876136
2399751068
2483532164
2569240248
2656898812
2746527324
2838149252
2931786512
3027461480
3125196184
3225012068
3326929820
3430973444
3537163828
3645522644
98239396
108786296
120061056
132090164
144896704
158505308
172940564
188226496
204386388
221446788
239431304
258364088
278268464
299170788
321093364
344062608
368101484
393234064
419485736
446881516
475443504
505197768
536167884
568378660
601854060
636619728
672698304
710114808
748892824
789057684
830634220
873647184
918118124
964074212
1011539416
1060536844
1111091224
1163227176
1216968316
1272340764
1329367740
1388073976
1448482680
1510620132
1574508112
1640173560
1707640444
1776932068
1848073124
1921088036
1996000568
2072836728
2151618672
2232371992
2315121628
2399892332
2486705844
2575588200
2666564312
2759658428
2854893704
2952296208
3051887644
3153694020
3257739684
3364049512
3472647976
3583558908
3696805328
3812413856
3930407716
4050811004
120464616
132948886
146268356
160448624
175516952
191500554
208426036
226319208
245209400
265122766
286086048
308125112
331269076
355542678
380975120
407591860
435419568
464486298
494819748
526444448
559389208
593680138
629344712
666409444
704902716
744849614
786277852
829213528
873684688
919718762
967343196
1016581936
1067464976
1120018866
1174269208
1230243388
1287968644
1347471150
1408779776
1471920264
1536919964
1603804618
1672603272
1743340104
1816044876
1890744138
1967463700
2046230904
2127072788
2210015662
2295088296
2382315288
2471724900
2563344762
2657202264
2753321512
2851731324
2952459266
3055532132
3160975640
3268818608
3379085150
3491803988
3607002076
3724706964
3844945742
3967744804
4093129676
4221129768
4351770814
4485079508
146726096
161424936
177073696
193702446
211341208
230019344
249765368
270611582
292586864
315720724
340041736
365581978
392368792
420434356
449806800
480515546
512591520
546065284
580963968
617319314
655160128
694516744
735418408
777896422
821978488
867695196
915075344
964149870
1014948984
1067503008
1121838408
1177988238
1235981808
1295847392
1357615216
1421315310
1486976584
1554630848
1624306544
1696033818
1769841112
1845760436
1923818536
2004048186
2086478696
2171138536
2258057904
2347266634
2438793752
2532670980
2628925520
2727588498
2828690416
2932261484
3038328344
3146922778
3258075192
3371815104
3488170976
3607174558
3728852496
3853236464
3980356200
4110242106
4242924072
4378431228
4516791784
4658038130
4802198688
4949302928
177595280
194810616
213104008
232508472
253056312
274778932
297711792
321886680
347336060
374091400
402187924
431655764
462530260
494842400
528624544
563910676
600734408
639125656
679119280
720746968
764042100
809036840
855765596
904258872
954550320
1006671624
1060656800
1116539024
1174351680
1234123940
1295892104
1359688368
1425543924
1493492024
1563565676
1635796712
1710220068
1786867072
1865770852
1946962736
2030477884
2116345796
2204602444
2295280084
2388410032
2484025528
2582159388
2682843540
2786112844
2891997292
3000531060
3111747708
3225680452
3342358656
3461817252
3584089672
3709208344
3837204660
3968113488
4101964192
4238791584
4378628372
4521507936
4667463212
4816526252
4968728136
5124104420
5282686400
5444506508
213693680
233759200
255043376
277581648
301408496
326562736
353079256
380993668
410340512
441158364
473480336
507345124
542786760
579840740
618544296
658934284
701043568
744910348
790569384
838057296
887409352
938663264
991852528
1047014052
1104182584
1163395424
1224688904
1288099664
1353659768
1421408960
1491382512
1563614728
1638142016
1715000616
1794225472
1875854840
1959923120
2046466620
2135519744
2227120996
2321302808
2418104556
2517561632
2619708392
2724581304
2832216364
2942648592
3055916180
3172052072
3291093716
3413077920
3538041100
3666015528
3797039484
3931149616
4068381456
4208769504
4352351952
4499161072
4649235008
4802609624
4959321476
5119406736
5282900572
5449837064
5620255188
5794189304
5971675000
255707716
278989202
303642432
329705156
357219748
386224394
416758048
448858524
482567948
517922606
554964752
593731640
634262116
676596862
720776176
766836064
814818268
864760818
916703768
970685692
1026747804
1084926786
1145262984
1207794428
1272561896
1339605078
1408964068
1480674016
1554778312
1631315502
1710323196
1791841160
1875909064
1962565098
2051851100
2143804740
2238465700
2335871662
2436064672
2539080288
2644961492
2753747010
2865474432
2980183656
3097914036
3218703898
3342594968
3469623340
3599829928
3733254990
3869938340
4009915352
4153227856
4299915914
4450018356
4603572972
4760621496
4921199302
5085348068
5253107012
5424516060
5599614822
5778441780
5961034208
6147434704
6337680890
6531811644
304389180
331285688
359719948
389738098
421381824
454693628
489714800
526491222
565062556
605474820
647768692
691986574
738172800
786371316
836621472
888968758
943454676
1000122888
1059015508
1120177458
1183648808
1249473548
1317693192
1388352202
1461493828
1537161824
1615394628
1696239482
1779738408
1865932528
1954865168
2046579634
2141117564
2238524584
2338841772
2442112454
2548377792
2657683580
2770068704
2885579958
3004259604
3126148672
3251290692
3379728582
3511504176
3646662940
3785244320
3927292902
4072852596
4221966820
4374674252
4531020446
4691049112
4854802584
5022322144
5193653274
5368834652
5547911696
5730927180
5917924606
6108947224
6304037036
6503234712
6706586678
6914134020
7125919112
360557540
391502960
424172060
458610236
494863748
532977564
573001540
614978912
658959684
704988168
753110524
803374956
855829268
910516364
967485680
1026782404
1088454024
1152546404
1219108384
1288183632
1359819984
1434062644
1510959980
1590559012
1672907364
1758046964
1846029124
1936899552
2030703080
2127486816
2227297904
2330181648
2436187672
2545360672
2657747828
2773393924
2892348780
3014654820
3140362860
3269518908
3402167636
3538356424
3678131952
3821539784
3968629336
4119443608
4274031076
4432439512
4594716148
4760903164
4931050052
5105204388
5283412220
5465718532
5652172764
5842817100
6037700904
6236870728
6440373860
6648257400
6860567072
7077347160
7298648128
7524514724
7754993040
425103060
460574620
497966960
537330312
578713536
622170684
667748772
715502016
765478572
817728564
872304296
929257648
988635272
1050490788
1114873284
1181834288
1251423628
1323694284
1398693704
1476473820
1557083736
1640575944
1727001452
1816411972
1908853116
2004380504
2103043744
2204891580
2309975128
2418345592
2530052148
2645148644
2763683604
2885708280
3011271296
3140426716
3273220648
3409708216
3549939388
3693962692
3841829572
3993590692
4149295552
4308997744
4472744032
4640586988
4812578476
4988769760
5169206716
5353943012
5543030304
5736518568
5934456704
6136898332
6343889324
6555483240
6771730620
6992682756
7218390816
7448904464
7684271792
7924547540
8169780332
8420020180
499004560
539515418
582161620
626996140
674077448
723456562
775192132
829336380
885943616
945070466
1006773108
1071102164
1138115660
1207866806
1280411392
1355803432
1434100268
1515353350
1599618928
1686950228
1777404088
1871035726
1967901164
2068049920
2171542144
2278431566
2388771064
2502615984
2620021812
2741041818
2865734296
2994151820
3126349936
3262381330
3402304532
3546169556
3694036056
3845958110
4001988396
4162182644
4326595724
4495281294
4668297344
4845694624
5027530024
5213859722
5404739236
5600218360
5800355160
6005205594
6214823788
6429262780
6648580592
6872827006
7102060000
7336334324
7575705496
7820228974
8069958584
8324946448
8585251804
8850927374
9122027312
583313520
629420188
677892736
728794282
782180072
838113420
896650840
957851058
1021775248
1088484116
1158032480
1230483002
1305893240
1384323476
1465832136
1550481154
1638326208
1729428096
1823844392
1921636474
2022864032
2127587628
2235860912
2347748794
2463309352
2582599828
2705680024
2832609938
2963447160
3098254660
3237089288
3380011114
3527077112
3678350508
3833885448
3993746346
4157991616
4326678316
4499866616
4677615894
4859984192
5047034128
5238820664
5435405238
5636848568
5843210656
6054545440
6270915614
6492381664
6719002096
6950834312
7187940966
7430375976
7678201968
7931478128
8190264430
8454620848
8724605564
9000274992
9281693098
9568916928
9862005008
679169592
731471796
786394800
843998308
904350536
967512524
1033547644
1102521856
1174500628
1249543204
1327717120
1409084516
1493710396
1581657812
1672993548
1767777740
1866075972
1967950400
2073467172
2182690688
2295686284
2412511972
2533237660
2657926008
2786638852
2919440688
3056396236
3197567660
3343022844
3492823148
3647033396
3805715088
3968936380
4136755780
4309242700
4486460124
4668469720
4855336336
5047124092
5243895572
5445718332
5652651780
5864762132
6082114884
6304774756
6532800060
6766258356
7005214892
7249732784
7499874036
7755706168
8017287464
8284685412
8557963892
8837187564
9122421156
9413727440
9711167352
10014809824
10324716460
10640950388
787800096
846950836
908988416
973986196
1042009976
1113128012
1187411296
1264930300
1345748920
1429939820
1517569944
1608709276
1703425728
1801791180
1903870464
2009734184
2119449312
2233087020
2350716656
2472408572
2598225344
2728242156
2862526488
3001145012
3144167144
3291662572
3443698280
3600347308
3761675760
3927753460
4098646656
4274428692
4455162664
4640923236
4831778200
5027794068
5229040608
5435586928
5647500392
5864853736
6087710976
6316143424
6550221592
6790015160
7035587048
7287009920
7544354032
7807687352
8077076712
8352594752
8634304344
8922278096
9216584816
9517294096
9824475656
10138197092
10458524096
10785530820
11119283664
11459850600
910540956
977234582
1047110464
1120239408
1196694800
1276552910
1359889460
1446773244
1537282300
1631488622
1729467420
1831291712
1937038720
2046778218
2160586076
2278534328
2400699416
2527155882
2657979340
2793237176
2933010096
3077370646
3226390580
3380144480
3538707248
3702150934
3870553980
4043987480
4222526504
4406242294
4595213628
4789508436
4989206880
5194381806
5405104816
5621450844
5843494232
6071307370
6304968420
6544546252
6790117520
7041757918
7299542412
7563538776
7833825024
8110476666
8393566768
8683167236
8979356076
9282200994
9591779964
9908166968
10231436776
10561664346
10898922344
11243281464
11594821324
11953613366
12319730652
1048811420
1123803404
1202286596
1284339762
1370044704
1459482648
1552727528
1649863006
1750966388
1856118360
1965397300
2078886026
2196659496
2318799108
2445382184
2576490710
2712204676
2852605212
2997764756
3147769798
3302698200
3462627012
3627636272
3797806350
3973214604
4153945140
4340074292
4531682626
4728846608
4931650728
5140167992
5354484322
5574677868
5800825572
6033007788
6271304334
6515792880
6766557276
7023671496
7287217786
7557277276
7833930472
8117250172
8407320074
8704221192
9008031940
9318829552
9636697654
9961709028
10293947264
10633491780
10980422774
11334820696
11696763536
12066327232
12443597130
12828649940
13221564088
1204155388
1288248076
1376165872
1467996368
1563826552
1663735756
1767813524
1876142732
1988809800
2105898724
2227498176
2353688556
2484557048
2620186520
2760664760
2906077464
3056511536
3212044724
3372769560
3538769480
3710127088
3886928136
4069258720
4257201764
4450847296
4650277148
4855577640
5066830720
5284126848
5507544364
5737175208
5973103092
6215410556
6464183632
6719507872
6981466484
7250149264
7525635548
7808013432
8097369740
8393790776
8697354620
9008150912
9326266344
9651785020
9984789760
10325370068
10673604060
11029581200
11393386600
11765106144
12144826032
12532629836
12928598996
13332824844
13745389616
14166377360
1378211284
1472266612
1570507704
1673027576
1779911216
1891254320
2007145596
2127677464
2252939796
2383027388
2518026344
2658029880
2803126688
2953410628
3108973364
3269907840
3436297372
3608240804
3785827408
3969145608
4158287128
4353344060
4554405116
4761566552
4974915956
5194545672
5420543392
5653005812
5892016864
6137674776
6390069084
6649288192
6915424068
7188568248
7468809760
7756244612
8050957760
8353043420
8662594372
8979702984
9304452876
9636939900
9977256688
10325493300
10681738320
11046087480
11418624492
11799444960
12188639948
12586301296
12992521216
13407389128
13830992232
14263428116
14704784804
15155152212
1572738544
1677681722
1787195460
1901370668
2020309468
2144106662
2272860944
2406668336
2545630028
2689838082
2839392024
2994386648
3154922152
3321096442
3493008772
3670748268
3854420384
4044120498
4239943108
4441986196
4650348112
4865123630
5086415508
5314317360
5548927820
5790340590
6038658880
6293972468
6556386156
6825995574
7102895232
7387183332
7678957664
7978313342
8285352860
8600167056
8922856528
9253520298
9592257068
9939156264
10294320216
10657847774
11029835220
11410377176
11799575872
12197520798
12604314056
13020052932
13444835488
13878760222
14321922664
14774416048
15236344492
15707802078
16188884844
1789625072
1906443732
2028234808
2155107126
2287161856
2424504244
2567236736
2715467194
2869293912
3028823004
3194155640
3365398634
3542656408
3726034804
3915629032
4111551434
4313903768
4522786884
4738305296
4960563890
5189663776
5425714492
5668815952
5919073314
6176586608
6441465836
6713806896
6993721442
7281311472
7576677880
7879925376
8191158282
8510478072
8837994004
9173803072
9518012534
9870727928
10232054568
10602087960
10980937190
11368707600
11765501972
12171421240
12586574410
13011057024
13444977960
13888440912
14341550530
14804411872
15277126856
15759795024
16252527302
16755424104
17268587868
2030885224
2160623612
2295774708
2436446332
2582750564
2734796556
2892699124
3056563076
3226501396
3402621912
3585038336
3773861888
3969205280
4171170088
4379875824
4595430908
4817942824
5047522900
5284282840
5528330372
5779782096
6038744508
6305329572
6579643928
6861804652
7151914044
7450090892
7756443844
8071080460
8394112240
8725650320
9065802816
9414686032
9772403400
10139069120
10514795528
10899694832
11293868900
11697433856
12110501816
12533182344
12965582968
13407819752
13859994572
14322223364
14794616512
15277285536
15770342244
16273895316
16788050884
17312926964
17848630584
18395270864
2298647520
2442429712
2592084944
2747732416
2909488272
3077474576
3251802928
3432593480
3619960992
3814026372
4014907928
4222725532
4437587392
4659620500
4888940224
5125660968
5369901136
5621779568
5881410888
6148919056
6424417432
6708025076
6999855528
7300033228
7608667120
7925883460
8251797832
8586524748
8930182784
9282890184
9644761984
10015921832
10396479856
10786557512
11186274224
11595749384
12015091488
12444424008
12883866120
13333534456
13793543416
14264016424
14745061968
15236803340
15739357896
16252844316
16777381448
17313085024
17860067960
18418455744
18988362304
19569903728
2595202884
2754216306
2919596592
3091467172
3269957652
3455186718
3647281984
3846365424
4052565448
4266007746
4486819644
4715116276
4951032408
5194690650
5446212608
5705724068
5973351300
6249216118
6533450136
6826173872
7127513776
7437590570
7756536364
8084467040
8421516616
8767807906
9123462668
9488606848
9863366080
10247862626
10642227772
11046578636
11461044224
11885751342
12320826860
12766386184
13222560440
13689476158
14167257332
14656025528
15155911824
15667031614
16189515828
16723489100
17269077564
17826407402
18395601692
18976780428
19570076864
20175612026
20793509360
2922970028
3098480536
3280878844
3470302402
3666877280
3870738848
4082016600
4300846750
4527362668
4761699436
5003979396
5254345406
5512927616
5779855136
6055261432
6339280498
6632041644
6933684440
7244336860
7564133046
7893201184
8231681372
8579696728
8937389334
9304889532
9682326580
10069834140
10467545538
10875590560
11294108432
11723223544
12163072770
12613790596
13075511672
13548358612
14032470490
14527981496
15035023288
15553724896
16084225354
16626647244
17181129452
17747804188
18326805342
18918266728
19522319064
20139089728
20768720042
21411338428
22067075992
3284526692
3477874064
3678668252
3887043012
4103141780
4327101876
4559067620
4799180372
5047583276
5304406184
5569800356
5843903788
6126853396
6418790636
6719857532
7030191192
7349939452
7679238016
8018229052
8367048520
8725844812
9094748584
9473910292
9863468112
10263559104
10674324956
11095906992
11528442824
11972079928
12426950272
12893198900
13370968288
13860401172
14361627676
14874795100
15400045632
15937518896
16487351696
17049691328
17624667864
18212428456
18813113196
19426864032
20053822720
20694127924
21347914708
22015332772
22696518240
23391610180
3682600036
3895210924
4115848480
4344664520
4581804496
4827421152
5081664148
5344685004
5616621388
5897633280
6187866832
6487467080
6796583776
7115367268
7443962796
7782526776
8131202948
8490141824
8859487448
9239396820
9630008440
10031481456
10443962188
10867595812
11302532348
11748921436
12206908776
12676650456
13158286328
13651969924
14157852020
14676083752
15206803060
15750165788
16306322432
16875420896
17457606064
18053033812
18661842012
19284186372
19920215196
20570078808
21233927216
21911907344
22604162248
23310850324
24032115708
24768105744
4120093360
4353465730
4595488548
4846315716
5106108720
5375025838
5653227284
5940858860
6238089584
6545074082
6861965828
7188923188
7526105152
7873665410
8231769276
8600568844
8980223288
9370885054
9772720068
10185874992
10610517984
11046803826
11494886128
11954923560
12427074396
12911492742
13408343616
13917775072
14439949448
14975026138
15523164996
16084512096
16659232144
17247484262
17849424952
18465207496
19094996668
19738938458
20397197448
21069930472
21757296548
22459454254
23176559092
23908762428
24656231672
25419119290
26197581220
4600053568
4855781636
5120812608
5395317034
5679462136
5973417148
6277336320
6591398042
6915765736
7250601624
7596073024
7952347894
8319588688
8697969952
9087652456
9488804358
9901586832
10326175056
10762724144
11211411622
11672401056
12145854812
12631940536
13130825462
13642672416
14167655680
14705931832
15257672290
15823045440
16402220180
16995351032
17602611898
18224170848
18860193304
19510841272
20176288750
20856690136
21552219244
22263041760
22989325718
23731238592
24488944788
25262604296
26052393874
26858474640
27681011436
5125722776
5405483852
5695244808
5995182140
6305474432
6626284704
6957801056
7300196036
7653640944
8018312380
8394387592
8782038116
9181448080
9592787260
10016233128
10451955908
10900140368
11360950404
11834573240
12321181556
12820946796
13334045920
13860655432
14400947228
14955105184
15523294724
16105696684
16702488772
17313849260
17939941448
18580948756
19237048540
19908415472
20595220592
21297647472
22015859240
22750039280
23500362460
24267006160
25050147080
25849958852
26666610428
27500288244
28351162400
29219406952
5700510768
6006083140
6322387072
6649610836
6987926552
7337532372
7698610304
8071341052
8455910832
8852506532
9261309104
9682512596
10116296120
10562846804
11022344232
11494983124
11980936480
12480401572
12993560528
13520594208
14061689216
14617031656
15186802840
15771196576
16370387456
16984566084
17613919824
18258636660
18918888952
19594870028
20286766864
20994763720
21719040992
22459792176
23217189464
23991426136
24782686584
25591157876
26417026272
27260474968
28121682200
29000844432
29898141056
30813755704
6328031884
6661287206
7006047408
7362494048
7730835676
8111264102
8503969772
8909148864
9326998248
9757708630
10201484324
10658514120
11128995140
11613116674
12111083736
12623078768
13149309436
13689967658
14245244048
14815335164
15400437088
16000740886
16616450644
17247750464
17894841056
18557919786
19237184692
19932817532
20645021888
21373994698
22119930148
22883018336
23663463024
24461445806
25277170204
26110830476
26962623716
27832746090
28721390664
29628745332
30555016932
31500394490
32465071552
7012089004
7375001260
7750215316
8137950470
8538408680
8951790484
9378302368
9818151534
10271538788
10738679060
11219771164
11715022566
12224632608
12748816948
13287767816
13841703622
14410826420
14995336928
15595442004
16211348058
16843256256
17491381312
18155917184
18837075038
19535062588
20250088276
20982343604
21732042758
22499392984
23284598688
24087860072
24909391514
25749384356
26608052712
27485601052
28382236846
29298166512
30233593336
31188715216
32163749714
33158895836
34174357392
7756691916
8151320972
8559118828
8980297944
9415069304
9863650056
10326258088
10803104660
11294415672
11800400316
12321276756
12857254740
13408560924
13975397680
14557994516
15156563976
15771317236
16402471808
17050244784
17714847784
18396506504
19095425112
19811825584
20545926336
21297946568
22068087880
22856575416
23663627084
24489457864
25334278416
26198314088
27081766324
27984860184
28907810704
29850836084
30814153348
31797976356
32802513364
33827993012
34874624640
35942622676
8566023108
8994563704
9437166080
9894052024
10365449704
10851588052
11352689140
11868990208
12400711180
12948081280
13511321008
14090668396
14686336296
15298565696
15927579988
16573601140
17236857700
17917577808
18615983888
19332312988
20066779808
20819617528
21591055628
22381324428
23190635964
24019226712
24867325608
25735158564
26622947056
27530927768
28459312548
29408337820
30378229540
31369217000
32381528192
33415387904
34471015096
35548649868
36648512252
37770827652
9444538904
9909279094
10389017232
10883992872
11394446356
11920610934
12462735552
13021051232
13595798624
14187209346
14795533172
15420993800
16063844064
16724318570
17402650444
18099079636
18813845700
19547182230
20299337992
21070538584
21861028756
22671049418
23500842376
24350630468
25220661868
26111176906
27022412792
27954602184
28907993468
29882809262
30879297720
31897696084
32938245104
34001184106
35086749172
36195170332
37326699512
38481567802
39660011948
10396883248
10900223164
11419550152
11955116338
12507166520
13075961724
13661744440
14264767118
14885272864
15523523568
16179754144
16854229646
17547196264
18258898656
18989588544
19739517270
20508929968
21298087496
22107226720
22936604334
23786473048
24657086528
25548678784
26461510062
27395832456
28351894848
29329941448
30330232718
31353002416
32398510800
33467006768
34558742842
35673970112
36812936328
37975882960
39163074134
40374752368
41611166124
11427926360
11972390388
12533879536
13112650524
13708976840
14323112820
14955323088
15605862608
16275005776
16962999084
17670120200
18396627276
19142776876
19908832876
20695058772
21501711624
22329064764
23177366704
24046886444
24937888888
25850639940
26785385120
27742397164
28721940308
29724275480
30749658824
31798363256
32870634036
33966743908
35086953816
36231528428
37400730980
38594821268
39814052576
41058701612
42329022688
43625276356
12542789664
13131024940
13737365240
14362096900
15005486480
15667811168
16349338168
17050354768
17771119408
18511922768
19273035344
20054725992
20857271120
21680946768
22526022304
23392783920
24281492128
25192428648
26125870960
27082097592
28061365952
29063961656
30090161464
31140238736
32214461920
33313116784
34436460472
35584778600
36758344536
37957435484
39182327208
40433291936
41710595088
43014526400
44345352360
45703345996
13746842444
14381613894
15035638864
15709196528
16402577028
17116060190
17849946592
18604507012
19380045532
20176845382
20995188092
21835363000
22697659080
23582358374
24489760348
25420137896
26373785856
27350994674
28352055892
29377239196
30426843464
31501158378
32600470120
33725059832
34875226524
36051239606
37253397940
38481987732
39737299112
41019620762
42329237724
43666427952
45031494600
46424716722
47846380212
15045691420
15729911156
16434565284
17159957294
17906380032
18674147764
19463543992
20274886606
21108471964
21964594664
22843557372
23745662374
24671204792
25620497772
26593826984
27591500778
28613822964
29661098496
30733609724
31831669194
32955579904
34105641252
35282147432
36485411134
37715714420
38973369804
40258676724
41571938630
42913457520
44283531648
45682451888
47110535218
48568073652
50055366284
16445241148
17181934564
17940308644
18720669656
19523345956
20348634172
21196866404
22068352540
22963400648
23882327124
24825447968
25793071784
26785525800
27803108864
28846143240
29914946504
31009837424
32131111416
33279095096
34454105180
35656454684
36886451256
38144421668
39430661036
40745495928
42089239416
43462208672
44864719412
46297083504
47759605144
49252615536
50776420056
52331331400
17951623908
18743964848
19559277480
20397904660
21260156544
22146379856
23056898420
23992034184
24952117676
25937479024
26948440720
27985344484
29048502744
30138252092
31254924276
32398852288
33570345012
34769743516
35997378672
37253577524
38538661576
39852972096
41196817660
42570539300
43974464124
45408923440
46874247088
48370760960
49898782976
51458658980
53050708116
54675257092
19571272008
20422564598
21298200388
22198503472
23123835616
24074534994
25050937844
26053389244
27082233864
28137808494
29220469764
30330544096
31468382820
32634332274
33828740088
35051929024
36304255020
37586063518
38897696000
40239488244
41611796428
43014942998
44449283868
45915160552
47412918948
48942903438
50505454352
52100903744
53729612516
55391913994
57088149308
21310880144
22224597360
23164054696
24129629382
25121674360
26140540572
27186588072
28260176482
29361657320
30491402548
31649752984
32837075134
34053730344
35300081304
36576465048
37883252822
39220805064
40589478116
41989622448
43421609570
44885776200
46382493560
47912118000
49475010430
51071530192
52702032468
54366863872
56066400786
57800991112
59570990848
23177484576
24157215408
25164182976
26198755416
27261298800
28352188584
29471799768
30620499024
31798674072
33006680552
34244900572
35513710912
36813489748
38144588812
39507395084
40902284424
42329628460
43789792780
45283164652
46810095492
48370972256
49966166556
51596054740
53261011536
54961407404
56697603944
58469993444
60278938808
62124811328
25178354192
26227880632
27306178488
28413629392
29550624632
30717555024
31914802816
33142771928
34401833240
35692384892
37014819544
38369531292
39756886976
41177289764
42631131368
44118799132
45640674184
47197159996
48788623080
50415466592
52078077832
53776849020
55512170704
57284429056
59094001048
60941295352
62826690304
64750572908
27321148692
28444387122
29597993552
30782375540
31997940156
33245085662
34524232616
35835767576
37180105152
38557654322
39968825540
41414001192
42893601072
44408033182
45957701020
47543001692
49164355312
50822143926
52516787328
54248688944
56018257304
57825899214
59672016996
61557003432
63481284016
65445252954
67449313400
29613797788
30814824704
32047892140
33313423866
34611834600
35943561984
37309008696
38708606262
40142780420
41611958428
43116538660
44656957982
46233641128
47847008196
49497472712
51185471878
52911403716
54675705104
56478796036
58321101798
60203045896
62125047248
64087514888
66090891578
68135587836
70222023412
32064553956
33347622888
34664472420
36015534172
37401263324
38822079116
40278430444
41770760260
43299513076
44865103700
46467986516
48108603448
49787391640
51504781492
53261227744
55057144816
56892987148
58769191752
60686201116
62644455900
64644392060
66686435336
68771046212
70898651968
73069689396
34682026980
36051563092
37456680200
38897851480
40375513184
41890132040
43442168668
45032085292
46660313604
48327325968
50033581952
51779536204
53565636448
55392355424
57260124404
59169415848
61120684236
63114389720
65150990568
67230940196
69354681536
71522693256
73735419852
75993315616
37475172624
38935767962
40433840740
41969844684
43544264816
45157579886
46810270292
48502785060
50235615008
52009237810
53824126080
55680745308
57579586716
59521098890
61505772760
63534080748
65606501132
67723510250
69885579440
72093169288
74346777108
76646865062
78993905396
40453282688
42009735092
43605596840
45241371714
46917557064
48634651932
50393123136
52193480426
54036220048
55921833048
57850803152
59823640534
61840811552
63902826060
66010174912
68163354978
70362861136
72609183116
74902799616
77244227074
79633945784
82072446412
43626064648
45283319644
46982023096
48722691428
50505842800
52331962296
54201579072
56115208420
58073360292
60076537124
62125268516
64220039072
66361378044
68549795192
70785806452
73069925716
75402661580
77784511328
80216010996
82697659484
85229966352
47003522224
48766747468
50573531352
52424411636
54319892144
56260521916
58246835776
60279363064
62358625392
64485172280
66659507040
68882178820
71153716760
73474656348
75845530968
78266868556
80739185440
83263037764
85838943512
88467431620
50596107916
52470660614
54390963408
56357539344
58370957836
60431773726
62540536224
64697786608
66904094804
69159983302
71466021648
73822758848
76230750424
78690549742
81202704564
83767750744
86386265024
89058784958
91785859328
54414655916
56406095844
58445523156
60533528134
62670686128
64857566712
67094731320
69382770778
71722227244
74113691156
76557731876
79054925454
81605845728
84211060780
86871126480
89586640662
92358160940
95186256436
58470408604
60584464820
62748876140
64964238920
67231143596
69550172256
71921937124
74347000524
76825974284
79359448620
81948020608
84592285056
87292830864
90050234416
92865115136
95738051196
98669632556
62774948180
65017606920
67313058904
69661915932
72064781248
74522288984
77035022124
79603614388
82228677356
84910829636
87650687512
90448861208
93305948104
96222589740
99199385324
102236946180
67340376536
69717825038
72150586100
74639284632
77184577184
79787067902
82447412916
85166245680
87944206844
90781934678
93680061232
96639205400
99660031348
102743159830
105889224044
72179199904
74697839736
77274391624
79909535054
82603895848
85358153064
88172962544
91048987498
93986888696
96987320532
100050923928
103178386194
106370350144
109627471368
77304355984
79970804808
82697889152
85486257032
88336610960
91249629688
94225999504
97266404204
100371521048
103542013504
106778592552
110081923588
113452685112
82729217376
85550356432
88434892712
91383552712
94397038616
97476060324
100621325184
103833533852
107113372856
110461577388
113878835952
117365850468
88467688516
91450579570
94499780608
97616017780
100800025132
104052534098
107374269264
110765940752
114228308500
117762084654
121367995088
94534035564
97686036944
100907334364
104198686554
107560849576
110994572480
114500589520
118079685930
121732598036
125460076192
100943123572
104271816376
107672899316
111147153628
114695353372
118318257480
122016677028
125791373056
129643120956
107710265300
111223491060
114812300616
118477493592
122219854144
126040219748
129939376708
133918126008
114851298048
118557153706
122341883780
126206298204
130151261416
134177585542
138286097712
122382573168
126289411620
130278505336
134350746282
138506972968
142748039236
130320956984
134437383244
138639610464
142928504108
147304945300
138683822784
143018772884
147443126536
151957792720
147489211724
152051848278
156707619964
156755619324
161555406312
166502148020
