test1,whatever,abcdefghi236@gmail.com,2
test2,NeverLucky,vagrantlikee@gmail.com,2
test,helloworld,ziyoustep@gmail.com,2
test4,HelloWorld,goro19980502@gmail.com,2
test5,Sleeping Forest,Mushiyo@gmail.com,2
team1,NCTU_Aurora,ZAWEDC,3
team2,NCTU_Fenrir,VWGOZD,3
team3,NCTU_Leonardo,MSPRFK,3
team4,NCTU_Ragnarok,PCXLYH,3
team5,NCTU_AC,WARECE,3
team6,NCTU_PlasmaPaw,MERLIN,3
team7,NCTU_tmprry,OPCODE,3
team8,team8,VQJEWR,3
team9,NCTU_Radar,SSETNU,3
team10,NCTU_Railgun,AAZGMI,3
team11,NCTU_Verthandi,KGMURD,3
team12,NCTU_Lokia3310,BOTREH,3
team13,team13,BEDAFE,3
team14,NCTU_Foudre,SOBSYM,3
